투개표 • krvote2
…
전체 투표

votes_df <- get_all_vote_info(sgId = "20220309", sgTypecode = "1")

votes_df |> 
  as_tibble()
#> # A tibble: 268 × 13
#>    num   sgId     sgTypecode sdName  wiwName totSunsu psSunsu psEtcSunsu totTusu
#>    <chr> <chr>    <chr>      <chr>   <chr>   <chr>    <chr>   <chr>      <chr>  
#>  1 1     20220309 1          합계    합계    44197692 275407… 16656930   340678…
#>  2 2     20220309 1          서울특… 합계    8346647  5151633 3195014    6501831
#>  3 3     20220309 1          서울특… 종로구  129968   74848   55120      100629 
#>  4 4     20220309 1          서울특… 중구    111448   67560   43888      84998  
#>  5 5     20220309 1          서울특… 용산구  199077   120179  78898      152068 
#>  6 6     20220309 1          서울특… 성동구  252087   154998  97089      197240 
#>  7 7     20220309 1          서울특… 광진구  303582   185922  117660     235471 
#>  8 8     20220309 1          서울특… 동대문… 300928   191891  109037     232106 
#>  9 9     20220309 1          서울특… 중랑구  347108   218838  128270     260862 
#> 10 10    20220309 1          서울특… 성북구  375880   226017  149863     292187 
#> # ℹ 258 more rows
#> # ℹ 4 more variables: psTusu <chr>, psEtcTusu <chr>, turnout <chr>,
#> #   vrOrder <chr>
…
전체 투표

count_df <- get_all_count_info(sgId = "20220309", sgTypecode = "1")

count_df |> 
  as_tibble()
#> # A tibble: 268 × 162
#>    num   sgId     sgTypecode sggName  sdName  wiwName  sunsu tusu  yutusu mutusu
#>    <chr> <chr>    <chr>      <chr>    <chr>   <chr>    <chr> <chr> <chr>  <chr> 
#>  1 1     20220309 1          대한민국 합계    합계     4419… 3406… 33760… 307542
#>  2 2     20220309 1          대한민국 서울특… 합계     8346… 6501… 64391… 62692 
#>  3 3     20220309 1          대한민국 서울특… 종로구   1299… 1006… 99366  1263  
#>  4 4     20220309 1          대한민국 서울특… 중구     1114… 84998 84184  814   
#>  5 5     20220309 1          대한민국 서울특… 용산구   1990… 1520… 150682 1386  
#>  6 6     20220309 1          대한민국 서울특… 성동구   2520… 1972… 195238 2002  
#>  7 7     20220309 1          대한민국 서울특… 광진구   3035… 2354… 232918 2553  
#>  8 8     20220309 1          대한민국 서울특… 동대문구 3009… 2321… 229637 2469  
#>  9 9     20220309 1          대한민국 서울특… 중랑구   3471… 2608… 258423 2439  
#> 10 10    20220309 1          대한민국 서울특… 성북구   3758… 2921… 289359 2828  
#> # ℹ 258 more rows
#> # ℹ 152 more variables: gigwonsu <chr>, jd01 <chr>, jd02 <chr>, jd03 <chr>,
#> #   jd04 <chr>, jd05 <chr>, jd06 <chr>, jd07 <chr>, jd08 <chr>, jd09 <chr>,
#> #   jd10 <chr>, jd11 <chr>, jd12 <chr>, jd13 <chr>, jd14 <chr>, jd15 <chr>,
#> #   jd16 <chr>, jd17 <chr>, jd18 <chr>, jd19 <chr>, jd20 <chr>, jd21 <chr>,
#> #   jd22 <chr>, jd23 <chr>, jd24 <chr>, jd25 <chr>, jd26 <chr>, jd27 <chr>,
#> #   jd28 <chr>, jd29 <chr>, jd30 <chr>, jd31 <chr>, jd32 <chr>, jd33 <chr>, …
…
